info face="Arial" size=20 bold=0 italic=0 charset="" unicode=0 stretchH=100 smooth=1 aa=1 padding=0,0,0,0 spacing=0,0
common lineHeight=24 base=19 scaleW=256 scaleH=256 pages=1 packed=0
page id=0 file="default.png"
chars count=160
char id=32   x=0     y=0     width=0     height=0     xoffset=0     yoffset=19    xadvance=6     page=0  chnl=0 
char id=64   x=0     y=0     width=20     height=21     xoffset=1     yoffset=3    xadvance=20     page=0  chnl=0 
char id=124   x=20     y=0     width=4     height=21     xoffset=2     yoffset=3    xadvance=6     page=0  chnl=0 
char id=125   x=24     y=0     width=8     height=21     xoffset=1     yoffset=3    xadvance=7     page=0  chnl=0 
char id=123   x=32     y=0     width=8     height=21     xoffset=0     yoffset=3    xadvance=7     page=0  chnl=0 
char id=93   x=40     y=0     width=6     height=21     xoffset=1     yoffset=3    xadvance=6     page=0  chnl=0 
char id=91   x=46     y=0     width=6     height=21     xoffset=1     yoffset=3    xadvance=6     page=0  chnl=0 
char id=41   x=52     y=0     width=7     height=21     xoffset=1     yoffset=3    xadvance=7     page=0  chnl=0 
char id=40   x=59     y=0     width=6     height=21     xoffset=1     yoffset=3    xadvance=7     page=0  chnl=0 
char id=106   x=65     y=0     width=6     height=21     xoffset=-1     yoffset=3    xadvance=4     page=0  chnl=0 
char id=1092   x=71     y=0     width=16     height=21     xoffset=1     yoffset=3    xadvance=16     page=0  chnl=0 
char id=1065   x=87     y=0     width=19     height=21     xoffset=1     yoffset=3    xadvance=19     page=0  chnl=0 
char id=1062   x=106     y=0     width=15     height=21     xoffset=2     yoffset=3    xadvance=15     page=0  chnl=0 
char id=1049   x=121     y=0     width=12     height=21     xoffset=2     yoffset=-1    xadvance=14     page=0  chnl=0 
char id=36   x=133     y=0     width=11     height=20     xoffset=1     yoffset=2    xadvance=11     page=0  chnl=0 
char id=1025   x=144     y=0     width=12     height=20     xoffset=2     yoffset=0    xadvance=13     page=0  chnl=0 
char id=1044   x=156     y=0     width=16     height=20     xoffset=0     yoffset=3    xadvance=14     page=0  chnl=0 
char id=35   x=172     y=0     width=13     height=17     xoffset=0     yoffset=3    xadvance=11     page=0  chnl=0 
char id=37   x=185     y=0     width=17     height=17     xoffset=1     yoffset=3    xadvance=18     page=0  chnl=0 
char id=92   x=202     y=0     width=7     height=17     xoffset=0     yoffset=3    xadvance=6     page=0  chnl=0 
char id=47   x=209     y=0     width=7     height=17     xoffset=0     yoffset=3    xadvance=6     page=0  chnl=0 
char id=63   x=216     y=0     width=10     height=17     xoffset=1     yoffset=3    xadvance=11     page=0  chnl=0 
char id=33   x=226     y=0     width=4     height=17     xoffset=2     yoffset=3    xadvance=6     page=0  chnl=0 
char id=48   x=230     y=0     width=11     height=17     xoffset=1     yoffset=3    xadvance=11     page=0  chnl=0 
char id=56   x=241     y=0     width=11     height=17     xoffset=1     yoffset=3    xadvance=11     page=0  chnl=0 
char id=55   x=0     y=21     width=11     height=17     xoffset=1     yoffset=3    xadvance=11     page=0  chnl=0 
char id=53   x=11     y=21     width=11     height=17     xoffset=1     yoffset=3    xadvance=11     page=0  chnl=0 
char id=52   x=22     y=21     width=12     height=17     xoffset=0     yoffset=3    xadvance=11     page=0  chnl=0 
char id=49   x=34     y=21     width=7     height=17     xoffset=2     yoffset=3    xadvance=11     page=0  chnl=0 
char id=121   x=41     y=21     width=12     height=17     xoffset=-1     yoffset=7    xadvance=10     page=0  chnl=0 
char id=113   x=53     y=21     width=11     height=17     xoffset=1     yoffset=7    xadvance=11     page=0  chnl=0 
char id=112   x=64     y=21     width=11     height=17     xoffset=1     yoffset=7    xadvance=11     page=0  chnl=0 
char id=108   x=75     y=21     width=4     height=17     xoffset=1     yoffset=3    xadvance=4     page=0  chnl=0 
char id=107   x=79     y=21     width=10     height=17     xoffset=1     yoffset=3    xadvance=10     page=0  chnl=0 
char id=105   x=89     y=21     width=4     height=17     xoffset=1     yoffset=3    xadvance=4     page=0  chnl=0 
char id=104   x=93     y=21     width=10     height=17     xoffset=1     yoffset=3    xadvance=10     page=0  chnl=0 
char id=103   x=103     y=21     width=11     height=17     xoffset=1     yoffset=7    xadvance=11     page=0  chnl=0 
char id=102   x=114     y=21     width=8     height=17     xoffset=0     yoffset=3    xadvance=6     page=0  chnl=0 
char id=100   x=122     y=21     width=11     height=17     xoffset=1     yoffset=3    xadvance=11     page=0  chnl=0 
char id=98   x=133     y=21     width=11     height=17     xoffset=1     yoffset=3    xadvance=11     page=0  chnl=0 
char id=90   x=144     y=21     width=13     height=17     xoffset=0     yoffset=3    xadvance=12     page=0  chnl=0 
char id=89   x=157     y=21     width=15     height=17     xoffset=0     yoffset=3    xadvance=14     page=0  chnl=0 
char id=88   x=172     y=21     width=14     height=17     xoffset=0     yoffset=3    xadvance=13     page=0  chnl=0 
char id=87   x=186     y=21     width=20     height=17     xoffset=0     yoffset=3    xadvance=19     page=0  chnl=0 
char id=86   x=206     y=21     width=16     height=17     xoffset=-1     yoffset=3    xadvance=13     page=0  chnl=0 
char id=85   x=222     y=21     width=13     height=17     xoffset=1     yoffset=3    xadvance=13     page=0  chnl=0 
char id=84   x=235     y=21     width=14     height=17     xoffset=0     yoffset=3    xadvance=12     page=0  chnl=0 
char id=83   x=0     y=38     width=12     height=17     xoffset=1     yoffset=3    xadvance=13     page=0  chnl=0 
char id=82   x=12     y=38     width=12     height=17     xoffset=2     yoffset=3    xadvance=14     page=0  chnl=0 
char id=81   x=24     y=38     width=16     height=17     xoffset=1     yoffset=4    xadvance=16     page=0  chnl=0 
char id=80   x=40     y=38     width=12     height=17     xoffset=2     yoffset=3    xadvance=13     page=0  chnl=0 
char id=78   x=52     y=38     width=13     height=17     xoffset=1     yoffset=3    xadvance=13     page=0  chnl=0 
char id=76   x=65     y=38     width=10     height=17     xoffset=2     yoffset=3    xadvance=11     page=0  chnl=0 
char id=75   x=75     y=38     width=12     height=17     xoffset=2     yoffset=3    xadvance=13     page=0  chnl=0 
char id=74   x=87     y=38     width=9     height=17     xoffset=1     yoffset=3    xadvance=10     page=0  chnl=0 
char id=73   x=96     y=38     width=4     height=17     xoffset=2     yoffset=3    xadvance=6     page=0  chnl=0 
char id=72   x=100     y=38     width=13     height=17     xoffset=1     yoffset=3    xadvance=13     page=0  chnl=0 
char id=71   x=113     y=38     width=16     height=17     xoffset=1     yoffset=3    xadvance=16     page=0  chnl=0 
char id=70   x=129     y=38     width=11     height=17     xoffset=2     yoffset=3    xadvance=12     page=0  chnl=0 
char id=69   x=140     y=38     width=12     height=17     xoffset=2     yoffset=3    xadvance=13     page=0  chnl=0 
char id=68   x=152     y=38     width=13     height=17     xoffset=2     yoffset=3    xadvance=14     page=0  chnl=0 
char id=67   x=165     y=38     width=13     height=17     xoffset=1     yoffset=3    xadvance=14     page=0  chnl=0 
char id=66   x=178     y=38     width=12     height=17     xoffset=2     yoffset=3    xadvance=13     page=0  chnl=0 
char id=65   x=190     y=38     width=16     height=17     xoffset=-1     yoffset=3    xadvance=13     page=0  chnl=0 
char id=1097   x=206     y=38     width=17     height=17     xoffset=1     yoffset=7    xadvance=16     page=0  chnl=0 
char id=1094   x=223     y=38     width=12     height=17     xoffset=1     yoffset=7    xadvance=11     page=0  chnl=0 
char id=1091   x=235     y=38     width=12     height=17     xoffset=-1     yoffset=7    xadvance=10     page=0  chnl=0 
char id=1088   x=0     y=55     width=11     height=17     xoffset=1     yoffset=7    xadvance=11     page=0  chnl=0 
char id=1081   x=11     y=55     width=10     height=17     xoffset=1     yoffset=3    xadvance=10     page=0  chnl=0 
char id=1073   x=21     y=55     width=11     height=17     xoffset=1     yoffset=3    xadvance=11     page=0  chnl=0 
char id=1071   x=32     y=55     width=13     height=17     xoffset=1     yoffset=3    xadvance=14     page=0  chnl=0 
char id=1070   x=45     y=55     width=19     height=17     xoffset=2     yoffset=3    xadvance=20     page=0  chnl=0 
char id=1069   x=64     y=55     width=14     height=17     xoffset=1     yoffset=3    xadvance=14     page=0  chnl=0 
char id=1068   x=78     y=55     width=12     height=17     xoffset=2     yoffset=3    xadvance=13     page=0  chnl=0 
char id=1067   x=90     y=55     width=16     height=17     xoffset=2     yoffset=3    xadvance=18     page=0  chnl=0 
char id=1066   x=106     y=55     width=17     height=17     xoffset=0     yoffset=3    xadvance=16     page=0  chnl=0 
char id=1064   x=123     y=55     width=18     height=17     xoffset=1     yoffset=3    xadvance=19     page=0  chnl=0 
char id=1063   x=141     y=55     width=12     height=17     xoffset=1     yoffset=3    xadvance=13     page=0  chnl=0 
char id=1061   x=153     y=55     width=14     height=17     xoffset=0     yoffset=3    xadvance=13     page=0  chnl=0 
char id=1060   x=167     y=55     width=16     height=17     xoffset=0     yoffset=3    xadvance=15     page=0  chnl=0 
char id=1059   x=183     y=55     width=14     height=17     xoffset=0     yoffset=3    xadvance=13     page=0  chnl=0 
char id=1058   x=197     y=55     width=14     height=17     xoffset=0     yoffset=3    xadvance=12     page=0  chnl=0 
char id=1057   x=211     y=55     width=13     height=17     xoffset=1     yoffset=3    xadvance=14     page=0  chnl=0 
char id=1056   x=224     y=55     width=12     height=17     xoffset=2     yoffset=3    xadvance=13     page=0  chnl=0 
char id=1055   x=236     y=55     width=13     height=17     xoffset=1     yoffset=3    xadvance=13     page=0  chnl=0 
char id=1053   x=0     y=72     width=13     height=17     xoffset=1     yoffset=3    xadvance=13     page=0  chnl=0 
char id=1051   x=13     y=72     width=13     height=17     xoffset=0     yoffset=3    xadvance=13     page=0  chnl=0 
char id=1050   x=26     y=72     width=12     height=17     xoffset=2     yoffset=3    xadvance=12     page=0  chnl=0 
char id=1048   x=38     y=72     width=12     height=17     xoffset=2     yoffset=3    xadvance=14     page=0  chnl=0 
char id=1047   x=50     y=72     width=12     height=17     xoffset=1     yoffset=3    xadvance=12     page=0  chnl=0 
char id=1046   x=62     y=72     width=20     height=17     xoffset=0     yoffset=3    xadvance=18     page=0  chnl=0 
char id=1045   x=82     y=72     width=12     height=17     xoffset=2     yoffset=3    xadvance=13     page=0  chnl=0 
char id=1043   x=94     y=72     width=11     height=17     xoffset=2     yoffset=3    xadvance=11     page=0  chnl=0 
char id=1042   x=105     y=72     width=12     height=17     xoffset=2     yoffset=3    xadvance=13     page=0  chnl=0 
char id=1041   x=117     y=72     width=12     height=17     xoffset=2     yoffset=3    xadvance=13     page=0  chnl=0 
char id=1040   x=129     y=72     width=16     height=17     xoffset=-1     yoffset=3    xadvance=13     page=0  chnl=0 
char id=38   x=145     y=72     width=13     height=16     xoffset=1     yoffset=4    xadvance=13     page=0  chnl=0 
char id=59   x=158     y=72     width=4     height=16     xoffset=2     yoffset=7    xadvance=6     page=0  chnl=0 
char id=57   x=162     y=72     width=11     height=16     xoffset=1     yoffset=4    xadvance=11     page=0  chnl=0 
char id=54   x=173     y=72     width=11     height=16     xoffset=1     yoffset=4    xadvance=11     page=0  chnl=0 
char id=51   x=184     y=72     width=10     height=16     xoffset=1     yoffset=4    xadvance=11     page=0  chnl=0 
char id=50   x=194     y=72     width=11     height=16     xoffset=1     yoffset=4    xadvance=11     page=0  chnl=0 
char id=116   x=205     y=72     width=7     height=16     xoffset=0     yoffset=4    xadvance=6     page=0  chnl=0 
char id=79   x=212     y=72     width=16     height=16     xoffset=1     yoffset=4    xadvance=16     page=0  chnl=0 
char id=77   x=228     y=72     width=15     height=16     xoffset=2     yoffset=4    xadvance=17     page=0  chnl=0 
char id=1105   x=243     y=72     width=11     height=16     xoffset=1     yoffset=4    xadvance=11     page=0  chnl=0 
char id=1076   x=0     y=89     width=14     height=16     xoffset=0     yoffset=7    xadvance=12     page=0  chnl=0 
char id=1054   x=14     y=89     width=16     height=16     xoffset=1     yoffset=4    xadvance=16     page=0  chnl=0 
char id=1052   x=30     y=89     width=15     height=16     xoffset=2     yoffset=4    xadvance=17     page=0  chnl=0 
char id=58   x=45     y=89     width=4     height=13     xoffset=2     yoffset=7    xadvance=6     page=0  chnl=0 
char id=122   x=49     y=89     width=11     height=13     xoffset=0     yoffset=7    xadvance=9     page=0  chnl=0 
char id=120   x=60     y=89     width=11     height=13     xoffset=0     yoffset=7    xadvance=9     page=0  chnl=0 
char id=119   x=71     y=89     width=18     height=13     xoffset=-1     yoffset=7    xadvance=15     page=0  chnl=0 
char id=118   x=89     y=89     width=12     height=13     xoffset=-1     yoffset=7    xadvance=9     page=0  chnl=0 
char id=117   x=101     y=89     width=10     height=13     xoffset=1     yoffset=7    xadvance=10     page=0  chnl=0 
char id=115   x=111     y=89     width=10     height=13     xoffset=1     yoffset=7    xadvance=10     page=0  chnl=0 
char id=114   x=121     y=89     width=7     height=13     xoffset=1     yoffset=7    xadvance=7     page=0  chnl=0 
char id=111   x=128     y=89     width=11     height=13     xoffset=1     yoffset=7    xadvance=11     page=0  chnl=0 
char id=110   x=139     y=89     width=10     height=13     xoffset=1     yoffset=7    xadvance=10     page=0  chnl=0 
char id=109   x=149     y=89     width=16     height=13     xoffset=1     yoffset=7    xadvance=16     page=0  chnl=0 
char id=101   x=165     y=89     width=11     height=13     xoffset=1     yoffset=7    xadvance=11     page=0  chnl=0 
char id=97   x=176     y=89     width=10     height=13     xoffset=1     yoffset=7    xadvance=11     page=0  chnl=0 
char id=1103   x=186     y=89     width=12     height=13     xoffset=0     yoffset=7    xadvance=11     page=0  chnl=0 
char id=1102   x=198     y=89     width=15     height=13     xoffset=1     yoffset=7    xadvance=15     page=0  chnl=0 
char id=1101   x=213     y=89     width=10     height=13     xoffset=1     yoffset=7    xadvance=10     page=0  chnl=0 
char id=1100   x=223     y=89     width=11     height=13     xoffset=1     yoffset=7    xadvance=11     page=0  chnl=0 
char id=1099   x=234     y=89     width=14     height=13     xoffset=1     yoffset=7    xadvance=14     page=0  chnl=0 
char id=1098   x=0     y=105     width=13     height=13     xoffset=1     yoffset=7    xadvance=13     page=0  chnl=0 
char id=1096   x=13     y=105     width=16     height=13     xoffset=1     yoffset=7    xadvance=16     page=0  chnl=0 
char id=1095   x=29     y=105     width=10     height=13     xoffset=1     yoffset=7    xadvance=10     page=0  chnl=0 
char id=1093   x=39     y=105     width=11     height=13     xoffset=0     yoffset=7    xadvance=9     page=0  chnl=0 
char id=1090   x=50     y=105     width=10     height=13     xoffset=1     yoffset=7    xadvance=9     page=0  chnl=0 
char id=1087   x=60     y=105     width=10     height=13     xoffset=1     yoffset=7    xadvance=10     page=0  chnl=0 
char id=1086   x=70     y=105     width=11     height=13     xoffset=1     yoffset=7    xadvance=11     page=0  chnl=0 
char id=1085   x=81     y=105     width=10     height=13     xoffset=1     yoffset=7    xadvance=10     page=0  chnl=0 
char id=1084   x=91     y=105     width=13     height=13     xoffset=1     yoffset=7    xadvance=13     page=0  chnl=0 
char id=1083   x=104     y=105     width=12     height=13     xoffset=0     yoffset=7    xadvance=11     page=0  chnl=0 
char id=1082   x=116     y=105     width=10     height=13     xoffset=1     yoffset=7    xadvance=9     page=0  chnl=0 
char id=1080   x=126     y=105     width=10     height=13     xoffset=1     yoffset=7    xadvance=10     page=0  chnl=0 
char id=1079   x=136     y=105     width=10     height=13     xoffset=0     yoffset=7    xadvance=9     page=0  chnl=0 
char id=1078   x=146     y=105     width=16     height=13     xoffset=0     yoffset=7    xadvance=13     page=0  chnl=0 
char id=1077   x=162     y=105     width=11     height=13     xoffset=1     yoffset=7    xadvance=11     page=0  chnl=0 
char id=1075   x=173     y=105     width=8     height=13     xoffset=1     yoffset=7    xadvance=7     page=0  chnl=0 
char id=1074   x=181     y=105     width=10     height=13     xoffset=1     yoffset=7    xadvance=11     page=0  chnl=0 
char id=1072   x=191     y=105     width=10     height=13     xoffset=1     yoffset=7    xadvance=11     page=0  chnl=0 
char id=43   x=201     y=105     width=12     height=12     xoffset=1     yoffset=6    xadvance=12     page=0  chnl=0 
char id=99   x=213     y=105     width=9     height=12     xoffset=1     yoffset=8    xadvance=10     page=0  chnl=0 
char id=1089   x=222     y=105     width=9     height=12     xoffset=1     yoffset=8    xadvance=10     page=0  chnl=0 
char id=94   x=231     y=105     width=9     height=10     xoffset=0     yoffset=3    xadvance=8     page=0  chnl=0 
char id=62   x=240     y=105     width=12     height=10     xoffset=1     yoffset=7    xadvance=12     page=0  chnl=0 
char id=60   x=0     y=118     width=12     height=10     xoffset=1     yoffset=7    xadvance=12     page=0  chnl=0 
char id=42   x=12     y=118     width=8     height=8     xoffset=0     yoffset=3    xadvance=8     page=0  chnl=0 
char id=61   x=20     y=118     width=12     height=8     xoffset=1     yoffset=8    xadvance=12     page=0  chnl=0 
char id=44   x=32     y=118     width=4     height=7     xoffset=2     yoffset=16    xadvance=6     page=0  chnl=0 
char id=39   x=36     y=118     width=4     height=7     xoffset=1     yoffset=3    xadvance=4     page=0  chnl=0 
char id=34   x=40     y=118     width=7     height=7     xoffset=1     yoffset=3    xadvance=7     page=0  chnl=0 
char id=126   x=47     y=118     width=12     height=5     xoffset=1     yoffset=10    xadvance=12     page=0  chnl=0 
char id=96   x=59     y=118     width=4     height=5     xoffset=1     yoffset=3    xadvance=7     page=0  chnl=0 
char id=95   x=63     y=118     width=13     height=4     xoffset=0     yoffset=20    xadvance=11     page=0  chnl=0 
char id=45   x=76     y=118     width=8     height=4     xoffset=0     yoffset=12    xadvance=7     page=0  chnl=0 
char id=46   x=84     y=118     width=4     height=4     xoffset=2     yoffset=16    xadvance=6     page=0  chnl=0 
